{
  "Malta": 3.62,
  "France": 4.16,
  "U.S. Virgin Islands": 4.34,
  "Brazil": 5.87,
  "Costa Rica": 6.4,
  "Colombia": 4.529999999999999,
  "Poland": 4.02,
  "China": 4.508,
  "Russia": 4.07,
  "United States": 9.28,
  "Indonesia": 7.623333333333334,
  "Peru": 3.63,
  "Macedonia": 4.18,
  "Croatia": 6.62,
  "Zambia": 0.89,
  "South Africa": 0.49,
  "South Korea": 1.65,
  "Azerbaijan": 9.42,
  "Thailand": 6.62,
  "Chile": 2.61
}